sim/waveform.vcd
$date
	Sun Mar  8 15:37:18 2026
$end
$version
	Icarus Verilog
$end
$timescale
	1ps
$end
$scope module riscv_testbench $end
$var reg 1 ! clk $end
$var reg 1 " reset $end
$var integer 32 # fail_count [31:0] $end
$var integer 32 $ pass_count [31:0] $end
$scope module u_dut $end
$var wire 1 % accel_stall $end
$var wire 1 ! clk $end
$var wire 1 & id_flush $end
$var wire 1 ' load_use_stall $end
$var wire 1 " reset $end
$var wire 1 ( stall $end
$var wire 32 ) pc_current [31:0] $end
$var wire 1 * memwb_reg_write $end
$var wire 5 + memwb_rd_addr [4:0] $end
$var wire 2 , memwb_mem_to_reg [1:0] $end
$var wire 32 - memwb_mem_data [31:0] $end
$var wire 32 . memwb_alu_result [31:0] $end
$var wire 32 / memwb_accel_result [31:0] $end
$var wire 32 0 mem_read_data [31:0] $end
$var wire 32 1 instruction_fetched [31:0] $end
$var wire 32 2 ifid_pc [31:0] $end
$var wire 32 3 ifid_instruction [31:0] $end
$var wire 32 4 idex_rs2_data [31:0] $end
$var wire 5 5 idex_rs2_addr [4:0] $end
$var wire 32 6 idex_rs1_data [31:0] $end
$var wire 5 7 idex_rs1_addr [4:0] $end
$var wire 1 8 idex_reg_write $end
$var wire 5 9 idex_rd_addr [4:0] $end
$var wire 32 : idex_pc [31:0] $end
$var wire 1 ; idex_mem_write $end
$var wire 2 < idex_mem_to_reg [1:0] $end
$var wire 1 = idex_mem_read $end
$var wire 32 > idex_immediate [31:0] $end
$var wire 1 ? idex_alu_src $end
$var wire 4 @ idex_alu_ctrl [3:0] $end
$var wire 1 A idex_accel_start $end
$var wire 32 B id_rs2_data [31:0] $end
$var wire 5 C id_rs2_addr [4:0] $end
$var wire 32 D id_rs1_data [31:0] $end
$var wire 5 E id_rs1_addr [4:0] $end
$var wire 1 F id_reg_write $end
$var wire 5 G id_rd [4:0] $end
$var wire 7 H id_opcode [6:0] $end
$var wire 1 I id_mem_write $end
$var wire 2 J id_mem_to_reg [1:0] $end
$var wire 1 K id_mem_read $end
$var wire 32 L id_immediate [31:0] $end
$var wire 7 M id_funct7 [6:0] $end
$var wire 3 N id_funct3 [2:0] $end
$var wire 1 O id_alu_src $end
$var wire 4 P id_alu_ctrl [3:0] $end
$var wire 1 Q id_accel_start $end
$var wire 32 R exmem_rs2_data [31:0] $end
$var wire 1 S exmem_reg_write $end
$var wire 5 T exmem_rd_addr [4:0] $end
$var wire 1 U exmem_mem_write $end
$var wire 2 V exmem_mem_to_reg [1:0] $end
$var wire 1 W exmem_mem_read $end
$var wire 32 X exmem_alu_result [31:0] $end
$var wire 32 Y exmem_accel_result [31:0] $end
$var wire 1 Z ex_zero_flag $end
$var wire 32 [ ex_forwarded_rs2 [31:0] $end
$var wire 32 \ ex_forwarded_rs1 [31:0] $end
$var wire 32 ] ex_alu_result [31:0] $end
$var wire 32 ^ ex_alu_operand_b [31:0] $end
$var wire 32 _ accel_result [31:0] $end
$var wire 1 ` accel_done $end
$var wire 1 a accel_busy $end
$var reg 32 b wb_write_data [31:0] $end
$scope module u_alu $end
$var wire 32 c operand_a [31:0] $end
$var wire 32 d operand_b [31:0] $end
$var wire 1 Z zero_flag $end
$var wire 4 e alu_ctrl [3:0] $end
$var parameter 4 f ALU_ADD $end
$var parameter 4 g ALU_AND $end
$var parameter 4 h ALU_OR $end
$var parameter 4 i ALU_SUB $end
$var reg 32 j alu_result [31:0] $end
$upscope $end
$scope module u_conv_accel $end
$var wire 1 a busy $end
$var wire 1 ! clk $end
$var wire 1 " reset $end
$var wire 1 k start_pulse $end
$var wire 1 A start $end
$var wire 32 l mac_acc [31:0] $end
$var parameter 2 m COMPUTE $end
$var parameter 2 n DONE_ST $end
$var parameter 2 o IDLE $end
$var reg 1 ` done $end
$var reg 4 p elem_count [3:0] $end
$var reg 8 q mac_a [7:0] $end
$var reg 8 r mac_b [7:0] $end
$var reg 1 s mac_clear $end
$var reg 1 t mac_enable $end
$var reg 2 u next_state [1:0] $end
$var reg 32 v result [31:0] $end
$var reg 1 w start_prev $end
$var reg 2 x state [1:0] $end
$scope module u_mac $end
$var wire 1 s clear $end
$var wire 1 ! clk $end
$var wire 1 t enable $end
$var wire 8 y operand_a [7:0] $end
$var wire 8 z operand_b [7:0] $end
$var wire 1 " reset $end
$var wire 16 { product [15:0] $end
$var reg 32 | accumulator [31:0] $end
$upscope $end
$upscope $end
$scope module u_ctrl $end
$var wire 3 } funct3 [2:0] $end
$var wire 7 ~ funct7 [6:0] $end
$var wire 7 !" opcode [6:0] $end
$var parameter 4 "" ALU_ADD $end
$var parameter 4 #" ALU_AND $end
$var parameter 4 $" ALU_OR $end
$var parameter 4 %" ALU_SUB $end
$var parameter 7 &" OP_CUSTOM $end
$var parameter 7 '" OP_I_TYPE $end
$var parameter 7 (" OP_R_TYPE $end
$var reg 1 Q accel_start $end
$var reg 4 )" alu_ctrl [3:0] $end
$var reg 1 O alu_src $end
$var reg 1 K mem_read $end
$var reg 2 *" mem_to_reg [1:0] $end
$var reg 1 I mem_write $end
$var reg 1 F reg_write $end
$upscope $end
$scope module u_exmem $end
$var wire 32 +" accel_result_in [31:0] $end
$var wire 32 ," alu_result_in [31:0] $end
$var wire 1 ! clk $end
$var wire 1 " reset $end
$var wire 32 -" rs2_data_in [31:0] $end
$var wire 1 % stall $end
$var wire 1 8 reg_write_in $end
$var wire 5 ." rd_addr_in [4:0] $end
$var wire 1 ; mem_write_in $end
$var wire 2 /" mem_to_reg_in [1:0] $end
$var wire 1 = mem_read_in $end
$var reg 32 0" accel_result_out [31:0] $end
$var reg 32 1" alu_result_out [31:0] $end
$var reg 1 W mem_read_out $end
$var reg 2 2" mem_to_reg_out [1:0] $end
$var reg 1 U mem_write_out $end
$var reg 5 3" rd_addr_out [4:0] $end
$var reg 1 S reg_write_out $end
$var reg 32 4" rs2_data_out [31:0] $end
$upscope $end
$scope module u_idex $end
$var wire 1 Q accel_start_in $end
$var wire 4 5" alu_ctrl_in [3:0] $end
$var wire 1 O alu_src_in $end
$var wire 1 ! clk $end
$var wire 1 & flush $end
$var wire 32 6" immediate_in [31:0] $end
$var wire 1 K mem_read_in $end
$var wire 2 7" mem_to_reg_in [1:0] $end
$var wire 1 I mem_write_in $end
$var wire 5 8" rd_addr_in [4:0] $end
$var wire 1 F reg_write_in $end
$var wire 1 " reset $end
$var wire 5 9" rs1_addr_in [4:0] $end
$var wire 5 :" rs2_addr_in [4:0] $end
$var wire 1 % stall $end
$var wire 32 ;" rs2_data_in [31:0] $end
$var wire 32 <" rs1_data_in [31:0] $end
$var wire 32 =" pc_in [31:0] $end
$var reg 1 A accel_start_out $end
$var reg 4 >" alu_ctrl_out [3:0] $end
$var reg 1 ? alu_src_out $end
$var reg 32 ?" immediate_out [31:0] $end
$var reg 1 = mem_read_out $end
$var reg 2 @" mem_to_reg_out [1:0] $end
$var reg 1 ; mem_write_out $end
$var reg 32 A" pc_out [31:0] $end
$var reg 5 B" rd_addr_out [4:0] $end
$var reg 1 8 reg_write_out $end
$var reg 5 C" rs1_addr_out [4:0] $end
$var reg 32 D" rs1_data_out [31:0] $end
$var reg 5 E" rs2_addr_out [4:0] $end
$var reg 32 F" rs2_data_out [31:0] $end
$upscope $end
$scope module u_ifid $end
$var wire 1 ! clk $end
$var wire 1 G" flush $end
$var wire 1 " reset $end
$var wire 1 ( stall $end
$var wire 32 H" pc_in [31:0] $end
$var wire 32 I" instruction_in [31:0] $end
$var reg 32 J" instruction_out [31:0] $end
$var reg 32 K" pc_out [31:0] $end
$upscope $end
$scope module u_imem $end
$var wire 32 L" instruction [31:0] $end
$var wire 32 M" addr [31:0] $end
$upscope $end
$scope module u_memwb $end
$var wire 32 N" accel_result_in [31:0] $end
$var wire 32 O" alu_result_in [31:0] $end
$var wire 1 ! clk $end
$var wire 32 P" mem_data_in [31:0] $end
$var wire 2 Q" mem_to_reg_in [1:0] $end
$var wire 5 R" rd_addr_in [4:0] $end
$var wire 1 S reg_write_in $end
$var wire 1 " reset $end
$var reg 32 S" accel_result_out [31:0] $end
$var reg 32 T" alu_result_out [31:0] $end
$var reg 32 U" mem_data_out [31:0] $end
$var reg 2 V" mem_to_reg_out [1:0] $end
$var reg 5 W" rd_addr_out [4:0] $end
$var reg 1 * reg_write_out $end
$upscope $end
$scope module u_pc $end
$var wire 1 ! clk $end
$var wire 1 " reset $end
$var wire 1 ( stall $end
$var reg 32 X" pc_out [31:0] $end
$upscope $end
$scope module u_regfile $end
$var wire 1 ! clk $end
$var wire 5 Y" rd_addr [4:0] $end
$var wire 32 Z" rd_data [31:0] $end
$var wire 1 " reset $end
$var wire 5 [" rs1_addr [4:0] $end
$var wire 5 \" rs2_addr [4:0] $end
$var wire 1 * wr_en $end
$var wire 32 ]" rs2_data [31:0] $end
$var wire 32 ^" rs1_data [31:0] $end
$var integer 32 _" i [31:0] $end
$upscope $end
$upscope $end
$upscope $end
$enddefinitions $end
$comment Show the parameter values. $end
$dumpall
b110011 ("
b10011 '"
b1011 &"
b1 %"
b11 $"
b10 #"
b0 ""
b0 o
b10 n
b1 m
b1 i
b11 h
b10 g
b0 f
$end
#0
$dumpvars
b100000 _"
b0 ^"
b0 ]"
b0 \"
b0 ["
b0 Z"
b0 Y"
b0 X"
b0 W"
b0 V"
b0 U"
b0 T"
b0 S"
b0 R"
b0 Q"
b0 P"
b0 O"
b0 N"
b0 M"
b1000101100000000000010010011 L"
b0 K"
b10011 J"
b1000101100000000000010010011 I"
b0 H"
0G"
b0 F"
b0 E"
b0 D"
b0 C"
b0 B"
b0 A"
b0 @"
b0 ?"
b0 >"
b0 ="
b0 <"
b0 ;"
b0 :"
b0 9"
b0 8"
b0 7"
b0 6"
b0 5"
b0 4"
b0 3"
b0 2"
b0 1"
b0 0"
b0 /"
b0 ."
b0 -"
b0 ,"
b0 +"
b0 *"
b0 )"
b10011 !"
b0 ~
b0 }
b0 |
b0 {
b0 z
b0 y
b0 x
0w
b0 v
b0 u
0t
0s
b0 r
b0 q
b0 p
b0 l
0k
b0 j
b0 e
b0 d
b0 c
b0 b
0a
0`
b0 _
b0 ^
b0 ]
b0 \
b0 [
1Z
b0 Y
b0 X
0W
b0 V
0U
b0 T
0S
b0 R
0Q
b0 P
1O
b0 N
b0 M
b0 L
0K
b0 J
0I
b10011 H
b0 G
1F
b0 E
b0 D
b0 C
b0 B
0A
b0 @
0?
b0 >
0=
b0 <
0;
b0 :
b0 9
08
b0 7
b0 6
b0 5
b0 4
b10011 3
b0 2
b1000101100000000000010010011 1
b0 0
b0 /
b0 .
b0 -
b0 ,
b0 +
0*
b0 )
0(
0'
0&
0%
b0 $
b0 #
1"
0!
$end
#5000
b100000 _"
1!
#10000
0!
#15000
b100000 _"
1!
#20000
0!
0"
#25000
1O
1F
b10001011 L
b10001011 6"
b100 M
b100 ~
b1011 C
b1011 :"
b1011 \"
b1 G
b1 8"
b11100101100100000000000100010011 1
b11100101100100000000000100010011 I"
b11100101100100000000000100010011 L"
1?
18
b1000101100000000000010010011 3
b1000101100000000000010010011 J"
b100 )
b100 H"
b100 M"
b100 X"
1!
#30000
0!
#35000
1O
1F
0Z
b10001011 ]
b10001011 j
b10001011 ,"
b1000001000000110110011 1
b1000001000000110110011 I"
b1000001000000110110011 L"
b11111111111111111111111001011001 L
b11111111111111111111111001011001 6"
b1110010 M
b1110010 ~
b11001 C
b11001 :"
b11001 \"
b10 G
b10 8"
b10001011 ^
b10001011 d
b1000 )
b1000 H"
b1000 M"
b1000 X"
b11100101100100000000000100010011 3
b11100101100100000000000100010011 J"
b100 2
b100 ="
b100 K"
b1011 5
b1011 E"
b1 9
b1 ."
b1 B"
b10001011 >
b10001011 ?"
1S
1!
#40000
0!
#45000
b11111111111111111111111001011001 ]
b11111111111111111111111001011001 j
b11111111111111111111111001011001 ,"
0O
1F
b11111111111111111111111001011001 ^
b11111111111111111111111001011001 d
b10 L
b10 6"
b0 M
b0 ~
b10 C
b10 :"
b10 \"
b1 E
b1 9"
b1 ["
b11 G
b11 8"
b110011 H
b110011 !"
b1000000000100011000001000110011 1
b1000000000100011000001000110011 I"
b1000000000100011000001000110011 L"
1*
b1 T
b1 3"
b1 R"
b10001011 X
b10001011 1"
b10001011 O"
b11001 5
b11001 E"
b10 9
b10 ."
b10 B"
b11111111111111111111111001011001 >
b11111111111111111111111001011001 ?"
b100 :
b100 A"
b1000001000000110110011 3
b1000001000000110110011 J"
b1000 2
b1000 ="
b1000 K"
b1100 )
b1100 H"
b1100 M"
b1100 X"
1!
#50000
0!
#55000
b10001011 B
b10001011 ;"
b10001011 ]"
b0 D
b0 <"
b0 ^"
b10001011 \
b10001011 c
b1 P
b1 )"
b1 5"
1F
b11111111111111111111111001011001 [
b11111111111111111111111001011001 -"
0Z
b11111111111111111111111011100100 ]
b11111111111111111111111011100100 j
b11111111111111111111111011100100 ,"
b10000011000001010110011 1
b10000011000001010110011 I"
b10000011000001010110011 L"
b10000000001 L
b10000000001 6"
b100000 M
b100000 ~
b1 C
b1 :"
b1 \"
b11 E
b11 9"
b11 ["
b100 G
b100 8"
b11111111111111111111111001011001 ^
b11111111111111111111111001011001 d
b10001011 b
b10001011 Z"
b10000 )
b10000 H"
b10000 M"
b10000 X"
b1000000000100011000001000110011 3
b1000000000100011000001000110011 J"
b1100 2
b1100 ="
b1100 K"
b10 5
b10 E"
b1 7
b1 C"
b11 9
b11 ."
b11 B"
b10 >
b10 ?"
b1000 :
b1000 A"
0?
b10 T
b10 3"
b10 R"
b11111111111111111111111001011001 X
b11111111111111111111111001011001 1"
b11111111111111111111111001011001 O"
b1 +
b1 W"
b1 Y"
b10001011 .
b10001011 T"
1!
#60000
0!
#65000
b0 B
b0 ;"
b0 ]"
b11111111111111111111111011100100 \
b11111111111111111111111011100100 c
b10001011 ^
b10001011 d
b0 P
b0 )"
b0 5"
1F
b11111111111111111111111001011001 b
b11111111111111111111111001011001 Z"
b10001011 [
b10001011 -"
b11111111111111111111111001011001 ]
b11111111111111111111111001011001 j
b11111111111111111111111001011001 ,"
b100 L
b100 6"
b0 M
b0 ~
b100 C
b100 :"
b100 \"
b101 G
b101 8"
b1000001111001100110011 1
b1000001111001100110011 I"
b1000001111001100110011 L"
b10 +
b10 W"
b10 Y"
b11111111111111111111111001011001 .
b11111111111111111111111001011001 T"
b11 T
b11 3"
b11 R"
b11111111111111111111111001011001 R
b11111111111111111111111001011001 4"
b11111111111111111111111011100100 X
b11111111111111111111111011100100 1"
b11111111111111111111111011100100 O"
b1 5
b1 E"
b11 7
b11 C"
b100 9
b100 ."
b100 B"
b10000000001 >
b10000000001 ?"
b10001011 4
b10001011 F"
b1100 :
b1100 A"
b1 @
b1 e
b1 >"
b10000011000001010110011 3
b10000011000001010110011 J"
b10000 2
b10000 ="
b10000 K"
b10100 )
b10100 H"
b10100 M"
b10100 X"
1!
#70000
0!
#75000
b11111111111111111111111001011001 B
b11111111111111111111111001011001 ;"
b11111111111111111111111001011001 ]"
b11111111111111111111111001011001 ^
b11111111111111111111111001011001 d
b10001011 D
b10001011 <"
b10001011 ^"
b10 P
b10 )"
b10 5"
1F
b11111111111111111111111001011001 [
b11111111111111111111111001011001 -"
b1000001110001110110011 1
b1000001110001110110011 I"
b1000001110001110110011 L"
b10 L
b10 6"
b10 C
b10 :"
b10 \"
b1 E
b1 9"
b1 ["
b111 N
b111 }
b110 G
b110 8"
b11111111111111111111110100111101 ]
b11111111111111111111110100111101 j
b11111111111111111111110100111101 ,"
b11111111111111111111111011100100 \
b11111111111111111111111011100100 c
b11111111111111111111111011100100 b
b11111111111111111111111011100100 Z"
b11000 )
b11000 H"
b11000 M"
b11000 X"
b1000001111001100110011 3
b1000001111001100110011 J"
b10100 2
b10100 ="
b10100 K"
b100 5
b100 E"
b101 9
b101 ."
b101 B"
b100 >
b100 ?"
b0 4
b0 F"
b10000 :
b10000 A"
b0 @
b0 e
b0 >"
b100 T
b100 3"
b100 R"
b10001011 R
b10001011 4"
b11111111111111111111111001011001 X
b11111111111111111111111001011001 1"
b11111111111111111111111001011001 O"
b11 +
b11 W"
b11 Y"
b11111111111111111111111011100100 .
b11111111111111111111111011100100 T"
1!
#80000
0!
#85000
b10001011 \
b10001011 c
b11 P
b11 )"
b11 5"
1F
b11111111111111111111111001011001 b
b11111111111111111111111001011001 Z"
b1001 ]
b1001 j
b1001 ,"
b110 N
b110 }
b111 G
b111 8"
b1111100101000010000010011 1
b1111100101000010000010011 I"
b1111100101000010000010011 L"
b100 +
b100 W"
b100 Y"
b11111111111111111111111001011001 .
b11111111111111111111111001011001 T"
b101 T
b101 3"
b101 R"
b11111111111111111111111001011001 R
b11111111111111111111111001011001 4"
b11111111111111111111110100111101 X
b11111111111111111111110100111101 1"
b11111111111111111111110100111101 O"
b10 5
b10 E"
b1 7
b1 C"
b110 9
b110 ."
b110 B"
b10 >
b10 ?"
b11111111111111111111111001011001 4
b11111111111111111111111001011001 F"
b10001011 6
b10001011 D"
b10100 :
b10100 A"
b10 @
b10 e
b10 >"
b1000001110001110110011 3
b1000001110001110110011 J"
b11000 2
b11000 ="
b11000 K"
b11100 )
b11100 H"
b11100 M"
b11100 X"
1!
#90000
0!
#95000
b0 B
b0 ;"
b0 ]"
b11111111111111111111110100111101 D
b11111111111111111111110100111101 <"
b11111111111111111111110100111101 ^"
1O
b0 P
b0 )"
b0 5"
1F
b1000000011101000000010010110011 1
b1000000011101000000010010110011 I"
b1000000011101000000010010110011 L"
b11111 L
b11111 6"
b11111 C
b11111 :"
b11111 \"
b101 E
b101 9"
b101 ["
b0 N
b0 }
b1000 G
b1000 8"
b10011 H
b10011 !"
b11111111111111111111111011011011 ]
b11111111111111111111111011011011 j
b11111111111111111111111011011011 ,"
b11111111111111111111110100111101 b
b11111111111111111111110100111101 Z"
b100000 )
b100000 H"
b100000 M"
b100000 X"
b1111100101000010000010011 3
b1111100101000010000010011 J"
b11100 2
b11100 ="
b11100 K"
b111 9
b111 ."
b111 B"
b11000 :
b11000 A"
b11 @
b11 e
b11 >"
b110 T
b110 3"
b110 R"
b1001 X
b1001 1"
b1001 O"
b101 +
b101 W"
b101 Y"
b11111111111111111111110100111101 .
b11111111111111111111110100111101 T"
1!
#100000
0!
#105000
b0 D
b0 <"
b0 ^"
b0 [
b0 -"
b11111111111111111111110100111101 \
b11111111111111111111110100111101 c
b1 P
b1 )"
b1 5"
0O
1F
b1001 b
b1001 Z"
b11111111111111111111110101011100 ]
b11111111111111111111110101011100 j
b11111111111111111111110101011100 ,"
b11111 ^
b11111 d
b10000000111 L
b10000000111 6"
b100000 M
b100000 ~
b111 C
b111 :"
b111 \"
b1000 E
b1000 9"
b1000 ["
b1001 G
b1001 8"
b110011 H
b110011 !"
b11001001000010100110011 1
b11001001000010100110011 I"
b11001001000010100110011 L"
b110 +
b110 W"
b110 Y"
b1001 .
b1001 T"
b111 T
b111 3"
b111 R"
b11111111111111111111111011011011 X
b11111111111111111111111011011011 1"
b11111111111111111111111011011011 O"
b11111 5
b11111 E"
b101 7
b101 C"
b1000 9
b1000 ."
b1000 B"
b11111 >
b11111 ?"
b0 4
b0 F"
b11111111111111111111110100111101 6
b11111111111111111111110100111101 D"
b11100 :
b11100 A"
b0 @
b0 e
b0 >"
1?
b1000000011101000000010010110011 3
b1000000011101000000010010110011 J"
b100000 2
b100000 ="
b100000 K"
b100100 )
b100100 H"
b100100 M"
b100100 X"
1!
#110000
0!
#115000
b11111111111111111111111011011011 [
b11111111111111111111111011011011 -"
b1001 B
b1001 ;"
b1001 ]"
b0 P
b0 )"
b0 5"
1F
b11111111111111111111110101011100 \
b11111111111111111111110101011100 c
b10110001011 1
b10110001011 I"
b10110001011 L"
b110 L
b110 6"
b0 M
b0 ~
b110 C
b110 :"
b110 \"
b1001 E
b1001 9"
b1001 ["
b1010 G
b1010 8"
b11111111111111111111111010000001 ]
b11111111111111111111111010000001 j
b11111111111111111111111010000001 ,"
b11111111111111111111111011011011 ^
b11111111111111111111111011011011 d
b11111111111111111111111011011011 b
b11111111111111111111111011011011 Z"
b101000 )
b101000 H"
b101000 M"
b101000 X"
b11001001000010100110011 3
b11001001000010100110011 J"
b100100 2
b100100 ="
b100100 K"
b111 5
b111 E"
b1000 7
b1000 C"
b1001 9
b1001 ."
b1001 B"
b10000000111 >
b10000000111 ?"
b0 6
b0 D"
b100000 :
b100000 A"
b1 @
b1 e
b1 >"
0?
b1000 T
b1000 3"
b1000 R"
b0 R
b0 4"
b11111111111111111111110101011100 X
b11111111111111111111110101011100 1"
b11111111111111111111110101011100 O"
b111 +
b111 W"
b111 Y"
b11111111111111111111111011011011 .
b11111111111111111111111011011011 T"
1!
#120000
0!
#125000
b1001 ^
b1001 d
b1001 [
b1001 -"
b0 B
b0 ;"
b0 ]"
b10 J
b10 *"
b10 7"
1Q
1F
b11111111111111111111110101011100 b
b11111111111111111111110101011100 Z"
b11111111111111111111111010000001 \
b11111111111111111111111010000001 c
b11111111111111111111111010001010 ]
b11111111111111111111111010001010 j
b11111111111111111111111010001010 ,"
b0 L
b0 6"
b0 C
b0 :"
b0 \"
b0 E
b0 9"
b0 ["
b1011 G
b1011 8"
b1011 H
b1011 !"
b10011 1
b10011 I"
b10011 L"
b1000 +
b1000 W"
b1000 Y"
b11111111111111111111110101011100 .
b11111111111111111111110101011100 T"
b1001 T
b1001 3"
b1001 R"
b11111111111111111111111011011011 R
b11111111111111111111111011011011 4"
b11111111111111111111111010000001 X
b11111111111111111111111010000001 1"
b11111111111111111111111010000001 O"
b110 5
b110 E"
b1001 7
b1001 C"
b1010 9
b1010 ."
b1010 B"
b110 >
b110 ?"
b1001 4
b1001 F"
b100100 :
b100100 A"
b0 @
b0 e
b0 >"
b10110001011 3
b10110001011 J"
b101000 2
b101000 ="
b101000 K"
b101100 )
b101100 H"
b101100 M"
b101100 X"
1!
#130000
0!
#135000
1Z
1(
b0 ^
b0 d
1%
1a
1O
0Q
b0 J
b0 *"
b0 7"
1F
b0 [
b0 -"
b1 u
b0 ]
b0 j
b0 ,"
b0 G
b0 8"
b10011 H
b10011 !"
1k
b0 \
b0 c
b11111111111111111111111010000001 b
b11111111111111111111111010000001 Z"
b110000 )
b110000 H"
b110000 M"
b110000 X"
b10011 3
b10011 J"
b101100 2
b101100 ="
b101100 K"
b0 5
b0 E"
b0 7
b0 C"
b1011 9
b1011 ."
b1011 B"
b0 >
b0 ?"
b0 4
b0 F"
b101000 :
b101000 A"
1A
b10 <
b10 /"
b10 @"
b1010 T
b1010 3"
b1010 R"
b1001 R
b1001 4"
b11111111111111111111111010001010 X
b11111111111111111111111010001010 1"
b11111111111111111111111010001010 O"
b1001 +
b1001 W"
b1001 Y"
b11111111111111111111111010000001 .
b11111111111111111111111010000001 T"
1!
#140000
0!
#145000
b11111111111111111111111010001010 b
b11111111111111111111111010001010 Z"
0k
b1010 +
b1010 W"
b1010 Y"
b11111111111111111111111010001010 .
b11111111111111111111111010001010 T"
1s
b1 x
1w
1!
#150000
0!
#155000
b1 p
b1000 q
b1000 y
1t
0s
1!
#160000
0!
#165000
b10 p
b10100 {
b101 r
b101 z
b100 q
b100 y
1!
#170000
0!
#175000
b10100 l
b10100 |
b11 p
b111 r
b111 z
b111 {
b1 q
b1 y
1!
#180000
0!
#185000
b100 p
b1001 r
b1001 z
b111111 {
b111 q
b111 y
b11011 l
b11011 |
1!
#190000
0!
#195000
b1011010 l
b1011010 |
b101 p
b110110 {
b110 q
b110 y
1!
#200000
0!
#205000
b110 p
b10 r
b10 z
b10 {
b1 q
b1 y
b10010000 l
b10010000 |
1!
#210000
0!
#215000
b10010010 l
b10010010 |
b111 p
b111 r
b111 z
b11100 {
b100 q
b100 y
1!
#220000
0!
#225000
b1000 p
b101 r
b101 z
b101 {
b1 q
b1 y
b10101110 l
b10101110 |
1!
#230000
0!
#235000
b10 u
b10110011 l
b10110011 |
b1001 p
b111 r
b111 z
b110001 {
b111 q
b111 y
1!
#240000
0!
#245000
b0 u
0t
b10 x
b11100100 l
b11100100 |
1!
#250000
0!
#255000
0(
0%
0a
b0 x
b11100100 _
b11100100 v
b11100100 +"
1`
1!
#260000
0!
#265000
b11100100 Y
b11100100 0"
b11100100 N"
b1011 T
b1011 3"
b1011 R"
b0 R
b0 4"
b0 X
b0 1"
b0 O"
b10 V
b10 2"
b10 Q"
b0 p
0`
b0 9
b0 ."
b0 B"
b101100 :
b101100 A"
0A
b0 <
b0 /"
b0 @"
1?
b110000 2
b110000 ="
b110000 K"
b110100 )
b110100 H"
b110100 M"
b110100 X"
1!
#270000
0!
#275000
b11100100 b
b11100100 Z"
b111000 )
b111000 H"
b111000 M"
b111000 X"
b110100 2
b110100 ="
b110100 K"
b110000 :
b110000 A"
0w
b0 T
b0 3"
b0 R"
b0 V
b0 2"
b0 Q"
b11100100 /
b11100100 S"
b1011 +
b1011 W"
b1011 Y"
b0 .
b0 T"
b10 ,
b10 V"
1!
#280000
0!
#285000
b0 b
b0 Z"
b0 +
b0 W"
b0 Y"
b0 ,
b0 V"
b110100 :
b110100 A"
b111000 2
b111000 ="
b111000 K"
b111100 )
b111100 H"
b111100 M"
b111100 X"
1!
#290000
0!
#295000
b1000000 )
b1000000 H"
b1000000 M"
b1000000 X"
b111100 2
b111100 ="
b111100 K"
b111000 :
b111000 A"
1!
#300000
0!
#305000
b111100 :
b111100 A"
b1000000 2
b1000000 ="
b1000000 K"
b1000100 )
b1000100 H"
b1000100 M"
b1000100 X"
1!
#310000
0!
#315000
b1001000 )
b1001000 H"
b1001000 M"
b1001000 X"
b1000100 2
b1000100 ="
b1000100 K"
b1000000 :
b1000000 A"
1!
#320000
0!
#325000
b1000100 :
b1000100 A"
b1001000 2
b1001000 ="
b1001000 K"
b1001100 )
b1001100 H"
b1001100 M"
b1001100 X"
1!
#330000
0!
#335000
b1010000 )
b1010000 H"
b1010000 M"
b1010000 X"
b1001100 2
b1001100 ="
b1001100 K"
b1001000 :
b1001000 A"
1!
#340000
0!
#345000
b1001100 :
b1001100 A"
b1010000 2
b1010000 ="
b1010000 K"
b1010100 )
b1010100 H"
b1010100 M"
b1010100 X"
1!
#350000
0!
#355000
b1011000 )
b1011000 H"
b1011000 M"
b1011000 X"
b1010100 2
b1010100 ="
b1010100 K"
b1010000 :
b1010000 A"
1!
#360000
0!
#365000
b1010100 :
b1010100 A"
b1011000 2
b1011000 ="
b1011000 K"
b1011100 )
b1011100 H"
b1011100 M"
b1011100 X"
1!
#370000
0!
#375000
b1100000 )
b1100000 H"
b1100000 M"
b1100000 X"
b1011100 2
b1011100 ="
b1011100 K"
b1011000 :
b1011000 A"
1!
#380000
0!
#385000
b1011100 :
b1011100 A"
b1100000 2
b1100000 ="
b1100000 K"
b1100100 )
b1100100 H"
b1100100 M"
b1100100 X"
1!
#390000
0!
#395000
b1101000 )
b1101000 H"
b1101000 M"
b1101000 X"
b1100100 2
b1100100 ="
b1100100 K"
b1100000 :
b1100000 A"
1!
#400000
0!
#405000
b1100100 :
b1100100 A"
b1101000 2
b1101000 ="
b1101000 K"
b1101100 )
b1101100 H"
b1101100 M"
b1101100 X"
1!
#410000
0!
#415000
b1110000 )
b1110000 H"
b1110000 M"
b1110000 X"
b1101100 2
b1101100 ="
b1101100 K"
b1101000 :
b1101000 A"
1!
#420000
0!
#425000
b1101100 :
b1101100 A"
b1110000 2
b1110000 ="
b1110000 K"
b1110100 )
b1110100 H"
b1110100 M"
b1110100 X"
1!
#430000
0!
#435000
b1111000 )
b1111000 H"
b1111000 M"
b1111000 X"
b1110100 2
b1110100 ="
b1110100 K"
b1110000 :
b1110000 A"
1!
#440000
0!
#445000
bx 1
bx I"
bx L"
b1110100 :
b1110100 A"
b1111000 2
b1111000 ="
b1111000 K"
b1111100 )
b1111100 H"
b1111100 M"
b1111100 X"
1!
#450000
0!
#455000
bx B
bx ;"
bx ]"
bx D
bx <"
bx ^"
0O
0F
bx L
bx 6"
bx M
bx ~
bx C
bx :"
bx \"
bx E
bx 9"
bx ["
bx N
bx }
bx G
bx 8"
bx H
bx !"
b10000000 )
b10000000 H"
b10000000 M"
b10000000 X"
bx 3
bx J"
b1111100 2
b1111100 ="
b1111100 K"
b1111000 :
b1111000 A"
1!
#460000
0!
#465000
bx ^
bx d
xZ
bx ]
bx j
bx ,"
bx [
bx -"
bx \
bx c
bx 5
bx E"
bx 7
bx C"
bx 9
bx ."
bx B"
bx >
bx ?"
bx 4
bx F"
bx 6
bx D"
b1111100 :
b1111100 A"
0?
08
b10000000 2
b10000000 ="
b10000000 K"
b10000100 )
b10000100 H"
b10000100 M"
b10000100 X"
1!
#470000
0!
#475000
b10001000 )
b10001000 H"
b10001000 M"
b10001000 X"
b10000100 2
b10000100 ="
b10000100 K"
b10000000 :
b10000000 A"
bx T
bx 3"
bx R"
bx R
bx 4"
bx X
bx 1"
bx O"
0S
1!
#480000
0!
#485000
bx b
bx Z"
bx +
bx W"
bx Y"
bx .
bx T"
0*
b10000100 :
b10000100 A"
b10001000 2
b10001000 ="
b10001000 K"
b10001100 )
b10001100 H"
b10001100 M"
b10001100 X"
1!
#490000
0!
#495000
b10010000 )
b10010000 H"
b10010000 M"
b10010000 X"
b10001100 2
b10001100 ="
b10001100 K"
b10001000 :
b10001000 A"
1!
#500000
0!
#505000
b10001100 :
b10001100 A"
b10010000 2
b10010000 ="
b10010000 K"
b10010100 )
b10010100 H"
b10010100 M"
b10010100 X"
1!
#510000
0!
#515000
b10011000 )
b10011000 H"
b10011000 M"
b10011000 X"
b10010100 2
b10010100 ="
b10010100 K"
b10010000 :
b10010000 A"
1!
#520000
0!
