edge_ai_cnn_accelerator/riscv_control_tb.vcd
$date
	Sat Mar 14 12:59:16 2026
$end
$version
	Icarus Verilog
$end
$timescale
	1ps
$end
$scope module riscv_control_tb $end
$var wire 1 ! mem_wen $end
$var wire 32 " mem_wdata [31:0] $end
$var wire 1 # mem_ren $end
$var wire 32 $ mem_rdata [31:0] $end
$var wire 32 % mem_addr [31:0] $end
$var reg 1 & clk $end
$var reg 1 ' mem_ready $end
$var reg 1 ( rst_n $end
$scope module uut $end
$var wire 1 & clk $end
$var wire 32 ) mem_rdata [31:0] $end
$var wire 1 ' mem_ready $end
$var wire 1 ( rst_n $end
$var parameter 4 * CONF_C $end
$var parameter 4 + CONF_H $end
$var parameter 4 , CONF_W $end
$var parameter 4 - FINISH $end
$var parameter 4 . INIT_MEM $end
$var parameter 4 / POLL $end
$var parameter 4 0 START $end
$var reg 32 1 mem_addr [31:0] $end
$var reg 1 # mem_ren $end
$var reg 32 2 mem_wdata [31:0] $end
$var reg 1 ! mem_wen $end
$var reg 4 3 state [3:0] $end
$upscope $end
$upscope $end
$enddefinitions $end
$comment Show the parameter values. $end
$dumpall
b100 0
b101 /
b0 .
b110 -
b1 ,
b10 +
b11 *
$end
#0
$dumpvars
b0 3
b0 2
b0 1
b10 )
0(
0'
0&
b0 %
b10 $
0#
b0 "
0!
$end
#5000
1&
#10000
0&
#15000
1&
#20000
0&
1(
#25000
b1 3
1&
#30000
0&
#35000
b0 $
b0 )
1!
b1000 "
b1000 2
b10000 %
b10000 1
1&
#40000
0&
#45000
1!
1'
1&
#50000
0&
#55000
b10 3
1!
1&
#60000
0&
#65000
b11 3
b10100 %
b10100 1
1!
1&
#70000
0&
#75000
b100 3
b11 "
b11 2
b11000 %
b11000 1
1!
1&
#80000
0&
#85000
b10 $
b10 )
b101 3
b1 "
b1 2
b0 %
b0 1
1!
1&
#90000
0&
#95000
b110 3
1#
0!
1&
#100000
0&
#105000
0#
1&
#110000
0&
#115000
0'
1&
